…
``` r
# convert numeric to factor where appropriate
birth_df %>% 
  mutate(
    babysex = as.factor(babysex),
    frace = as.factor(frace),
    malform = as.factor(malform),
    mrace = as.factor(mrace),
    parity = as.factor(parity),
    pnumlbw = as.factor(pnumlbw),
    pnumsga = as.factor(pnumsga)
  )
```

    ## # A tibble: 4,342 × 20
    ##      bwt babysex bhead blength delwt fincome frace gaweeks malform menarche
    ##    <dbl> <fct>   <dbl>   <dbl> <dbl>   <dbl> <fct>   <dbl> <fct>      <dbl>
    ##  1  3629 2          34      51   177      35 1        39.9 0             13
    ##  2  3062 1          34      48   156      65 2        25.9 0             14
    ##  3  3345 2          36      50   148      85 1        39.9 0             12
    ##  4  3062 1          34      52   157      55 1        40   0             14
    ##  5  3374 2          34      52   156       5 1        41.6 0             13
    ##  6  3374 1          33      52   129      55 1        40.7 0             12
    ##  7  2523 2          33      46   126      96 2        40.3 0             14
    ##  8  2778 2          33      49   140       5 1        37.4 0             12
    ##  9  3515 1          36      52   146      85 1        40.3 0             11
    ## 10  3459 1          33      50   169      75 2        40.7 0             12
    ## # … with 4,332 more rows, and 10 more variables: mheight <dbl>, momage <dbl>,
    ## #   mrace <fct>, parity <fct>, pnumlbw <fct>, pnumsga <fct>, ppbmi <dbl>,
    ## #   ppwt <dbl>, smoken <dbl>, wtgain <dbl>
…
